coloc estimated eQTL priors - eQTL distribution analysis
…
onek1k_data

# A tibble: 6,749 × 9
   gene_id         tss_distance round cell_type_collapsed cell_type n_cell_types
   <chr>                  <dbl> <dbl> <chr>               <list>           <int>
 1 ENSG00000001561      -30457      1 Natural Killer Cell <chr [1]>            1
 2 ENSG00000001561      731144      2 Dendritic Cell      <chr [1]>            1
 3 ENSG00000002549       -6032.     1 Classic Monocyte    <chr [1]>            1
 4 ENSG00000002549        5396.     1 Non-classic Monocy… <chr [1]>            1
 5 ENSG00000002822     -307020      1 CD8 Effector memory <chr [1]>            1
 6 ENSG00000002822     -243222      1 Non-classic Monocy… <chr [1]>            1
 7 ENSG00000002822     -195349      1 Natural Killer Cell <chr [1]>            1
 8 ENSG00000002919      -32379      1 CD8 Effector memory <chr [1]>            1
 9 ENSG00000002933      -21895      1 Non-classic Monocy… <chr [1]>            1
10 ENSG00000002933      -21895      2 Dendritic Cell      <chr [1]>            1
# ℹ 6,739 more rows
# ℹ 3 more variables: abs_tss_distance <dbl>, log10_tss_distance <dbl>,
#   log10_abs_tss_distance <dbl>
…
