coloc estimated eQTL priors - GWAS-eQTL colocalisation analysis
…
gwas_eqtl_colocs |>
  filter(gwas_id == "AUTOIMMUNE") |>
  filter(PP.H4.abf_unif > 0.8) |>
  count(gene_name) |>
  arrange(desc(n)) |>
  print(n = 47)

# A tibble: 55 × 2
   gene_name     n
   <chr>     <int>
 1 PPIL3         6
 2 IRF5          4
 3 MMEL1         4
 4 UBASH3A       4
 5 ACTR1B        3
 6 PUS10         3
 7 ACAP1         2
 8 ADCY3         2
 9 ANKRD36       2
10 ANKRD55       2
11 C2orf74       2
12 CEPT1         2
13 COG6          2
14 DDX17         2
15 DENND2D       2
16 H4C13         2
17 IQCN          2
18 KCTD11        2
19 NTN5          2
20 RAB2A         2
21 SYNGR1        2
22 VAV3          2
23 APOBR         1
24 BACH2         1
25 BRD7          1
26 CD226         1
27 CIAO1         1
28 DRAM2         1
29 DRD4          1
30 FUBP1         1
31 GINS2         1
32 GPR25         1
33 INPP5B        1
34 IRF7          1
35 ITPR3         1
36 KCNH4         1
37 LIF           1
38 LMNTD2        1
39 MARS1         1
40 METTL7B       1
41 NEK6          1
42 NKX2-3        1
43 ORMDL3        1
44 PDE8B         1
45 PRR5L         1
46 RAB14         1
47 RASGRP1       1
# ℹ 8 more rows
…
