coloc estimated eQTL priors - Method testing
…
method_comparison_data |> 
  mutate(
    h4_non_unif = max(h4_non_unif), 
    h4_unif = max(h4_unif)
  ) |>  
  mutate(h4_diff = h4_unif - h4_non_unif) |> 
  mutate(abs_h4_diff = abs(h4_diff)) |> 
  arrange(desc(abs_h4_diff))

# A tibble: 117 × 11
# Rowwise: 
   trait1          trait2 block    tss gene1 coloc_unif   coloc_non_unif h4_unif
   <chr>           <chr>  <chr>  <dbl> <lgl> <list>       <list>           <dbl>
 1 CCL19_Zhao_375… GENCO… chr3… 1.33e8 FALSE <named list> <named list>     0.805
 2 CD_DeLange_280… GTEx_… chr2… 2.48e7 FALSE <named list> <named list>     0.283
 3 Alasoo_2018_ge… CD_De… chr2… 2.49e7 TRUE  <named list> <named list>     0.281
 4 Lepik_2017_ge_… UC_De… chr2… 4.32e7 TRUE  <named list> <named list>     0.240
 5 Nedelec_2016_g… UC_De… chr2… 4.32e7 TRUE  <named list> <named list>     0.278
 6 Quach_2016_ge_… TWEAK… chr3… 9.87e7 TRUE  <named list> <named list>     0.691
 7 Bossini-Castil… VIT_J… chr4… 1.01e8 TRUE  <named list> <named list>     0.590
 8 ASTCO_Ferreira… Schmi… chr2… 1.98e8 FALSE <named list> <named list>     0.513
 9 AITD_Saevarsdo… GTEx_… chr2… 6.23e7 FALSE <named list> <named list>     0.380
10 CD_DeLange_280… Schmi… chr2… 1.98e8 FALSE <named list> <named list>     0.701
# ℹ 107 more rows
# ℹ 3 more variables: h4_non_unif <dbl>, h4_diff <dbl>, abs_h4_diff <dbl>

method_comparison_data |> 
  mutate(
    h4_non_unif = max(h4_non_unif), 
    h4_unif = max(h4_unif)
  ) |>  
  mutate(h4_diff = h4_unif - h4_non_unif) |> 
  mutate(abs_h4_diff = abs(h4_diff)) |> 
  arrange(abs_h4_diff)

# A tibble: 117 × 11
# Rowwise: 
   trait1          trait2 block    tss gene1 coloc_unif   coloc_non_unif h4_unif
   <chr>           <chr>  <chr>  <dbl> <lgl> <list>       <list>           <dbl>
 1 Quach_2016_ge_… TRANC… chr3… 1.73e8 TRUE  <named list> <named list>   1.65e-7
 2 GTEx_ge_blood.… UC_De… chr2… 2.28e8 TRUE  <named list> <named list>   1.00e+0
 3 AITD_Saevarsdo… GTEx_… chr2… 2.28e8 FALSE <named list> <named list>   1.00e+0
 4 Quach_2016_ge_… TRANC… chr3… 1.73e8 TRUE  <named list> <named list>   1.67e-7
 5 TwinsUK_ge_ski… UC_De… chr2… 1.99e8 TRUE  <named list> <named list>   7.42e-1
 6 ASTCO_Ferreira… GTEx_… chr2… 2.28e8 FALSE <named list> <named list>   2.35e-1
 7 ASTCO_Ferreira… GENCO… chr2… 2.28e8 FALSE <named list> <named list>   9.96e-1
 8 GENCORD_ge_T-c… UC_De… chr2… 2.28e8 TRUE  <named list> <named list>   8.22e-1
 9 AITD_Saevarsdo… GENCO… chr2… 2.28e8 FALSE <named list> <named list>   8.83e-1
10 Quach_2016_ge_… TWEAK… chr3… 9.87e7 TRUE  <named list> <named list>   9.88e-1
# ℹ 107 more rows
# ℹ 3 more variables: h4_non_unif <dbl>, h4_diff <dbl>, abs_h4_diff <dbl>
…
