coloc estimated eQTL priors - pQTL-eQTL colocalisation analysis
…
coloc_level_data

# A tibble: 80 × 8
   eqtl_data_id prior_type      n_colocalised  n_tp  n_fn  n_fp recall precision
   <chr>        <chr>                   <int> <int> <int> <int>  <dbl>     <dbl>
 1 QTD000373    unif                      128    90   444    38  0.169     0.703
 2 QTD000373    eqtl_tss_onek1…           128    88   446    40  0.165     0.688
 3 QTD000373    eqtl_tss_onek1…           127    87   447    40  0.163     0.685
 4 QTD000373    eqtl_tss_onek1…           127    87   447    40  0.163     0.685
 5 QTD000373    pqtl_tss_onek1…           133    92   442    41  0.172     0.692
 6 QTD000373    eqtl_tss_pqtl_…           133    91   443    42  0.170     0.684
 7 QTD000373    eqtl_tss_eqtlg…           127    87   447    40  0.163     0.685
 8 QTD000373    pqtl_tss_eqtlg…           132    93   441    39  0.174     0.705
 9 QTD000373    eqtl_tss_pqtl_…           132    90   444    42  0.169     0.682
10 QTD000373    gnocchi_eqtl              127    88   446    39  0.165     0.693
# ℹ 70 more rows

protein_level_data

# A tibble: 80 × 8
   eqtl_data_id prior_type      n_colocalised  n_tp  n_fn  n_fp recall precision
   <chr>        <chr>                   <int> <int> <int> <int>  <dbl>     <dbl>
 1 QTD000373    unif                      128    90   444    38  0.169     0.703
 2 QTD000373    eqtl_tss_onek1…           128    88   446    40  0.165     0.688
 3 QTD000373    eqtl_tss_onek1…           127    87   447    40  0.163     0.685
 4 QTD000373    eqtl_tss_onek1…           127    87   447    40  0.163     0.685
 5 QTD000373    pqtl_tss_onek1…           133    92   442    41  0.172     0.692
 6 QTD000373    eqtl_tss_pqtl_…           133    91   443    42  0.170     0.684
 7 QTD000373    eqtl_tss_eqtlg…           127    87   447    40  0.163     0.685
 8 QTD000373    pqtl_tss_eqtlg…           132    93   441    39  0.174     0.705
 9 QTD000373    eqtl_tss_pqtl_…           132    90   444    42  0.169     0.682
10 QTD000373    gnocchi_eqtl              127    88   446    39  0.165     0.693
# ℹ 70 more rows
…
